{
  "Comment.nvim": { "branch": "master", "commit": "0236521ea582747b58869cb72f70ccfa967d2e89" },
  "bufferline.nvim": { "branch": "main", "commit": "9e8d2f695dd50ab6821a6a53a840c32d2067a78a" },
  "lazy.nvim": { "branch": "main", "commit": "96584866b9c5e998cbae300594d0ccfd0c464627" },
  "lualine.nvim": { "branch": "master", "commit": "2248ef254d0a1488a72041cfb45ca9caada6d994" },
  "nvim-lspconfig": { "branch": "master", "commit": "553c4e0e667167640c5398573f6f3a488ff8047a" },
  "nvim-tree.lua": { "branch": "master", "commit": "fa00b57873008700a83c1387f02ef2c6fc183b53" },
  "nvim-treesitter": { "branch": "master", "commit": "6d45b3469719a9740a5ef6304bb6771516d19bd5" },
  "nvim-web-devicons": { "branch": "master", "commit": "cdbcca210cf3655aa9b31ebf2422763ecd85ee5c" },
  "plenary.nvim": { "branch": "master", "commit": "50012918b2fc8357b87cff2a7f7f0446e47da174" },
  "telescope.nvim": { "branch": "master", "commit": "18774ec7929c8a8003a91e9e1f69f6c32258bbfe" },
  "tokyonight.nvim": { "branch": "main", "commit": "f247ee700b569ed43f39320413a13ba9b0aef0db" },
  "which-key.nvim": { "branch": "main", "commit": "4433e5ec9a507e5097571ed55c02ea9658fb268a" }
}
